03.01.2019 08:47:19   Get configuration from app.config
03.01.2019 08:47:19  Check time
03.01.2019 08:47:35  Call method GetDataSet()
03.01.2019 08:48:08   Get configuration from app.config
03.01.2019 08:48:08  Check time
03.01.2019 08:48:17  Call method GetDataSet()
03.01.2019 08:48:18  method GetDataSet() returned True 
03.01.2019 08:48:20  method GetDataSet() returned True 
03.01.2019 08:48:24  Send email 
03.01.2019 09:09:45   Get configuration from app.config
03.01.2019 09:09:46  Check time
03.01.2019 09:10:19   Get configuration from app.config
03.01.2019 09:10:19  Check time
03.01.2019 09:10:24  Check time
03.01.2019 09:52:29   Get configuration from app.config
03.01.2019 09:52:29  Check time
03.01.2019 09:52:34  method GetDataSet() returned True 
03.01.2019 09:52:34  method GetDataSet() returned True 
03.01.2019 09:52:34  Send email 
03.01.2019 09:52:40  Check time
03.01.2019 09:53:06  method GetDataSet() returned True 
03.01.2019 09:53:06  method GetDataSet() returned True 
03.01.2019 09:53:06  Send email 
03.01.2019 09:53:15   Get configuration from app.config
03.01.2019 09:53:15  Check time
03.01.2019 09:53:17  method GetDataSet() returned True 
03.01.2019 09:53:17  method GetDataSet() returned True 
03.01.2019 09:53:21  Send email 
03.01.2019 09:55:07   Get configuration from app.config
03.01.2019 09:55:07  Check time
03.01.2019 09:55:08  method GetDataSet() returned True 
03.01.2019 09:55:08  method GetDataSet() returned True 
03.01.2019 09:55:08  Send email 
03.01.2019 09:55:10  Started Teaching
03.01.2019 09:57:04   Get configuration from app.config
03.01.2019 09:57:04  Check time
03.01.2019 09:57:05  method GetDataSet() returned True 
03.01.2019 09:57:05  method GetDataSet() returned True 
03.01.2019 09:57:05  Send email 
03.01.2019 09:57:07  Started Teaching
03.01.2019 09:58:31   Get configuration from app.config
03.01.2019 09:58:31  Check time
03.01.2019 09:58:31  method GetDataSet() returned True 
03.01.2019 09:58:31  method GetDataSet() returned True 
03.01.2019 09:58:31  Send email 
03.01.2019 09:58:33  Started Teaching
03.01.2019 10:01:27   Get configuration from app.config
03.01.2019 10:01:27  Check time
03.01.2019 10:01:27  method GetDataSet() returned True 
03.01.2019 10:01:27  method GetDataSet() returned True 
03.01.2019 10:01:27  Send email 
03.01.2019 10:01:30  Started Teaching
03.01.2019 10:02:25   Get configuration from app.config
03.01.2019 10:02:25  Check time
03.01.2019 10:02:26  method GetDataSet() returned True 
03.01.2019 10:02:26  method GetDataSet() returned True 
03.01.2019 10:02:26  Send email 
03.01.2019 10:02:28  Started Teaching
