 started
 started
 started
 started
 started
 started
 started
 Nie można rzutować obiektu typu 'QuickAI.ImportData.PrepareDataSet.Interfaces.TwitterModel.Tweet' na typ 'System.String'.
 started
 started
 started
 started
 started
 started
 started
 started
 started
 started
 started
 started
 started
 started
 started
 started
 started
 started
 started
 started
 started
 started
 started
 started
 started
 started
 started
 started
 started
 started
 started
 started
 started
 started
 started
 started
 started
 started
 started
 started
 started
 started
 started
 started
 started
 started
 started
 started
 started
 started
 started
 started
 started
 started
 started
 started
 started
 started
 started
 started
